{"count":60,"next":"http://book-service:8000/api/books/?page=2","previous":null,"results":[{"id":6,"title":"Tom Clancy's Net Force","author":"Tom Clancy","publisher":1,"publisher_detail":{"id":1,"name":"O'Reilly Media","address":"1005 Gravenstein Hwy"},"category":"programming","price":"310000.00","stock":47,"description":"A wonderful programming book. Original title: Tom Clancy's Net Force. Highly rated.","cover_image_url":"https://covers.openlibrary.org/b/id/225568-L.jpg"},{"id":9,"title":"IBM PC Apprentice","author":"Inc. Wordware Pub.","publisher":1,"publisher_detail":{"id":1,"name":"O'Reilly Media","address":"1005 Gravenstein Hwy"},"category":"programming","price":"89000.00","stock":94,"description":"A wonderful programming book. Original title: IBM PC Apprentice. Highly rated.","cover_image_url":"https://covers.openlibrary.org/b/id/11723779-L.jpg"},{"id":20,"title":"De rerum natura","author":"Titus Lucretius Carus","publisher":1,"publisher_detail":{"id":1,"name":"O'Reilly Media","address":"1005 Gravenstein Hwy"},"category":"science","price":"89000.00","stock":78,"description":"A wonderful science book. Original title: De rerum natura. Highly rated.","cover_image_url":"https://covers.openlibrary.org/b/id/566208-L.jpg"},{"id":25,"title":"History","author":"Herodotus","publisher":1,"publisher_detail":{"id":1,"name":"O'Reilly Media","address":"1005 Gravenstein Hwy"},"category":"science","price":"89000.00","stock":80,"description":"A wonderful science book. Original title: History. Highly rated.","cover_image_url":"https://covers.openlibrary.org/b/id/9829028-L.jpg"},{"id":3,"title":"The C Programming Language","author":"Brian W. Kernighan","publisher":1,"publisher_detail":{"id":1,"name":"O'Reilly Media","address":"1005 Gravenstein Hwy"},"category":"programming","price":"89000.00","stock":50,"description":"A wonderful programming book. Original title: The C Programming Language. Highly rated.","cover_image_url":"https://covers.openlibrary.org/b/id/6684943-L.jpg"},{"id":18,"title":"Brave New World","author":"Aldous Huxley","publisher":1,"publisher_detail":{"id":1,"name":"O'Reilly Media","address":"1005 Gravenstein Hwy"},"category":"science","price":"150000.00","stock":94,"description":"A wonderful science book. Original title: Brave New World. Highly rated.","cover_image_url":"https://covers.openlibrary.org/b/id/8231823-L.jpg"},{"id":22,"title":"Two years before the mast","author":"Richard Henry Dana","publisher":1,"publisher_detail":{"id":1,"name":"O'Reilly Media","address":"1005 Gravenstein Hwy"},"category":"science","price":"240000.00","stock":80,"description":"A wonderful science book. Original title: Two years before the mast. Highly rated.","cover_image_url":"https://covers.openlibrary.org/b/id/8245243-L.jpg"},{"id":31,"title":"Pride and Prejudice","author":"Jane Austen","publisher":1,"publisher_detail":{"id":1,"name":"O'Reilly Media","address":"1005 Gravenstein Hwy"},"category":"fiction","price":"195000.00","stock":97,"description":"A wonderful fiction book. Original title: Pride and Prejudice. Highly rated.","cover_image_url":"https://covers.openlibrary.org/b/id/14348537-L.jpg"},{"id":30,"title":"Principles of Anatomy and Physiology","author":"Gerard J. Tortora","publisher":1,"publisher_detail":{"id":1,"name":"O'Reilly Media","address":"1005 Gravenstein Hwy"},"category":"science","price":"120000.00","stock":71,"description":"A wonderful science book. Original title: Principles of Anatomy and Physiology. Highly rated.","cover_image_url":"https://covers.openlibrary.org/b/id/3810109-L.jpg"},{"id":2,"title":"Software Engineering","author":"Roger S. Pressman","publisher":1,"publisher_detail":{"id":1,"name":"O'Reilly Media","address":"1005 Gravenstein Hwy"},"category":"programming","price":"120000.00","stock":61,"description":"A wonderful programming book. Original title: Software Engineering. Highly rated.","cover_image_url":"https://covers.openlibrary.org/b/id/66176-L.jpg"}]}